[
	{
		"uuid" : "110ec58a-a0f2-4ac4-8393-c866d813b8d2",
    "w_login": "w_login",
    "w_password": "w_password",
    "y_login":"y_login",
    "y_password": "y_password",
    "y_gauth": "WGDKEJ7GZ4IJUGVGDVMYZOC3N2LUXU2A",
		"useragent": "Mozilla/5.0 (Linux; Android 4.0.4; Galaxy Nexus Build/IMM76B) AppleWebKit/535.19 (KHTML, like Gecko) Chrome/18.0.1025.133 Mobile Safari/535.19"
	}
]
